<?xml version="1.0" encoding="UTF-8" standalone="no"?>
<svg
   xmlns:dc="http://purl.org/dc/elements/1.1/"
   xmlns:cc="http://creativecommons.org/ns#"
   xmlns:rdf="http://www.w3.org/1999/02/22-rdf-syntax-ns#"
   xmlns:svg="http://www.w3.org/2000/svg"
   xmlns="http://www.w3.org/2000/svg"
   viewBox="0 0 440 554.66669"
   height="554.66669"
   width="440"
   xml:space="preserve"
   id="svg2"
   version="1.1"><metadata
     id="metadata8"><rdf:RDF><cc:Work
         rdf:about=""><dc:format>image/svg+xml</dc:format><dc:type
           rdf:resource="http://purl.org/dc/dcmitype/StillImage" /></cc:Work></rdf:RDF></metadata><defs
     id="defs6"><clipPath
       id="clipPath18"
       clipPathUnits="userSpaceOnUse"><path
         id="path16"
         d="M 0,416 H 330 V 0 H 0 Z" /></clipPath></defs><g
     transform="matrix(1.3333333,0,0,-1.3333333,0,554.66667)"
     id="g10"><g
       id="g12"><g
         clip-path="url(#clipPath18)"
         id="g14"><g
           transform="translate(196.0254,359.4082)"
           id="g20"><path
             id="path22"
             style="fill:#ffffff;fill-opacity:1;fill-rule:nonzero;stroke:none"
             d="m 0,0 c 1.311,-3.154 3.982,-5.204 6.233,-7.581 1.105,-1.166 2.033,-1.074 3.065,0.066 1.469,1.624 2.941,3.252 4.296,4.97 0.646,0.819 1.025,1.85 1.525,2.785 V -8.624 L 0,-8.624 Z" /></g><g
           transform="translate(211.1445,361.3281)"
           id="g24"><path
             id="path26"
             style="fill:#ffffff;fill-opacity:1;fill-rule:nonzero;stroke:none"
             d="m 0,0 c -1.351,3.892 -4.25,6.764 -6.586,10.007 -0.298,0.414 -0.569,0.848 -0.853,1.273 H 0 Z" /></g><g
           transform="translate(203.4648,372.6079)"
           id="g28"><path
             id="path30"
             style="fill:#ffffff;fill-opacity:1;fill-rule:nonzero;stroke:none"
             d="M 0,0 C -1.457,-1.945 -2.985,-3.843 -4.35,-5.851 -5.479,-7.513 -6.417,-9.305 -7.439,-11.04 V 0 Z" /></g><g
           transform="translate(203.793,356.3857)"
           id="g32"><path
             id="path34"
             style="fill:#ffffff;fill-opacity:1;fill-rule:nonzero;stroke:none"
             d="m 0,0 c -1.34,1.454 -2.493,2.705 -3.74,4.056 1.18,1.453 2.322,2.859 3.581,4.407 C 1.004,6.978 2.115,5.559 3.277,4.075 2.194,2.729 1.155,1.437 0,0" /></g><g
           transform="translate(181.0186,244.4248)"
           id="g36"><path
             id="path38"
             style="fill:#000000;fill-opacity:1;fill-rule:nonzero;stroke:none"
             d="m 0,0 c 1.064,-3.538 1.363,-5.81 2.41,-7.658 1.111,-1.964 3.843,-5.234 4.301,-4.99 3.505,1.865 2.877,4.521 0.725,7.471 -1.805,2.475 -3.662,5.775 0.971,7.247 2.417,0.769 6.145,0.076 3.094,3.954 C 10.354,7.482 5.979,8.413 4.865,7.47 2.468,5.443 1.232,2.043 0,0 m -39.276,0.392 c -1.753,2.041 -4.043,5.33 -7.053,7.707 -0.632,0.5 -3.909,-2.349 -5.967,-3.654 1.491,-0.919 2.876,-2.289 4.494,-2.674 5.313,-1.265 5.095,-4.007 2.072,-7.29 -1.801,-1.954 -4.454,-3.365 -1.531,-6.275 0.585,-0.582 2.061,-1.309 2.123,-1.226 1.451,1.959 2.963,3.922 4.034,6.096 0.759,1.538 0.887,3.386 1.828,7.316 m 12.763,14.396 c 0.353,-0.093 0.705,-0.186 1.057,-0.28 -1.857,-7.691 -3.421,-15.467 -5.642,-23.052 -3.105,-10.598 -7.856,-20.808 -6.479,-32.311 0.147,-1.223 -0.494,-2.539 -0.769,-3.812 -1.391,0.828 -2.963,1.462 -4.116,2.543 -0.923,0.864 -1.063,2.662 -2.041,3.345 -1.398,0.978 -3.243,1.317 -4.897,1.928 -0.639,-2.182 -1.872,-4.413 -1.695,-6.526 0.107,-1.27 3.224,-2.164 3.557,-3.566 0.649,-2.727 0.29,-5.694 0.349,-8.562 -2.168,0.32 -4.357,0.99 -6.498,0.86 -2.144,-0.129 -4.239,-1.059 -6.356,-1.638 1.249,-2.028 2.069,-5.055 3.859,-5.823 2.093,-0.899 5.677,-0.73 7.479,0.56 5.019,3.594 8.265,2.656 12.453,-1.627 8.287,-8.473 19.227,-7.825 28.439,-3.451 7.512,3.567 13.443,9.429 22.253,3.956 0.732,-0.454 3.105,0.288 3.556,1.11 1.126,2.056 1.585,4.476 2.313,6.751 -1.929,0.19 -3.892,0.689 -5.777,0.483 -1.858,-0.203 -3.637,-1.12 -5.452,-1.724 -0.325,2.537 -1.284,5.213 -0.771,7.568 0.4,1.839 2.504,3.415 4.07,4.872 3.223,2.998 0.797,4.824 -1.516,5.937 -1.379,0.663 -3.923,0.504 -5.119,-0.39 -2.537,-1.893 -4.534,-4.508 -6.752,-6.827 0.211,3.007 0.966,6.097 0.514,9.001 -0.81,5.212 -2.162,10.363 -3.611,15.448 -4.441,15.585 -12.669,30.604 -6.759,47.674 0.232,0.668 -0.39,1.633 -0.615,2.459 -0.979,-0.511 -2.33,-0.777 -2.864,-1.584 -1.213,-1.831 -1.922,-3.987 -3.038,-5.892 -0.637,-1.085 -1.672,-1.937 -2.528,-2.895 -0.626,1.087 -1.162,2.239 -1.895,3.247 -1.911,2.631 -3.908,5.199 -5.871,7.792 0.284,-2.978 0.608,-5.953 0.838,-8.935 0.17,-2.208 0.221,-4.426 0.324,-6.639 m -85.403,49.818 c -5.082,11.888 -0.737,21.221 7.959,29.375 4.884,0.048 9.896,0.797 14.611,-0.069 4.08,-0.75 8.38,-2.69 11.482,-5.375 1.577,-1.365 1.843,-6.151 0.669,-8.258 -1.204,-2.161 -4.878,-3.983 -7.491,-4.008 -2.279,-0.023 -8.537,0.667 -2.596,6.026 3.316,2.992 -0.538,5.21 -2.617,5.018 -2.714,-0.252 -6.835,-1.896 -7.482,-3.877 -0.898,-2.754 -0.202,-7.336 1.694,-9.443 5.253,-5.838 11.873,-4.475 18.386,-1.565 1.795,0.802 3.959,0.777 5.954,1.131 -0.716,-1.982 -0.841,-4.728 -2.247,-5.818 -6.916,-5.359 -1.733,-6.183 2.53,-7.398 11.818,-3.368 12.019,-3.162 10.033,9.557 -3.786,24.256 -19.805,33.259 -42.996,24.166 -1.293,-0.256 -2.769,-0.196 -3.851,-0.819 -9.474,-5.464 -9.661,-5.498 -9.555,4.683 0.09,8.707 -1.323,16.765 -7.153,23.636 -0.68,0.801 -0.603,2.245 -0.876,3.392 1.233,0.074 2.926,0.707 3.626,0.131 4.415,-3.631 9.547,-6.901 12.632,-11.503 3.62,-5.4 6.698,-7.566 13.715,-6.603 15.278,2.098 30.291,1.149 41.698,-11.79 0.638,-0.724 3.63,-0.124 4.968,0.732 1.37,0.876 2.263,2.729 2.992,4.325 1.597,3.495 2.957,7.098 4.414,10.657 -3.369,0.474 -6.725,1.14 -10.111,1.385 -10.051,0.727 -18.767,7.202 -20.358,15.988 -0.609,3.361 0.188,6.977 0.345,10.476 1.999,-2.287 4.079,-4.509 5.98,-6.875 5.108,-6.352 10.636,-8.271 20.235,-4.146 6.827,2.934 9.545,0.754 12.456,-4.815 4.825,-9.233 3.165,-18.151 -0.723,-26.927 -1.964,-4.434 -4.897,-8.429 -7.247,-12.703 -6.629,-12.058 -5.348,-21.863 4.343,-31.373 4.731,-4.642 9.706,-9.065 14.893,-13.181 1.021,-0.809 4.114,-0.43 5.237,0.555 5.333,4.682 10.592,9.512 15.361,14.759 8.013,8.817 8.92,18.966 2.725,29.381 -5.247,8.818 -11.16,17.396 -9.94,28.318 0.481,4.307 1.589,8.725 3.371,12.657 1.974,4.353 4.733,6.088 10.545,3.655 12.513,-5.238 17.868,-2.681 23.549,8.509 0.587,1.157 1.985,1.903 3.006,2.84 0.616,-1.15 1.613,-2.245 1.787,-3.459 1.457,-10.17 -7.208,-21.613 -17.606,-23.17 -2.608,-0.391 -5.323,-0.014 -7.981,-0.129 -2.424,-0.105 -4.839,-0.398 -7.258,-0.608 0.931,-2.438 1.666,-4.976 2.846,-7.288 1.203,-2.357 2.756,-4.555 4.314,-6.709 2.48,-3.431 5.354,-4.541 8.799,-1.14 11.687,11.531 26.172,12.343 41.024,9.764 5.434,-0.944 8.148,0.073 10.569,4.779 4.023,7.816 9.768,13.737 19.253,14.475 l -0.141,0.14 c -7.567,-9.62 -9.38,-20.643 -8.245,-32.518 0.221,-2.309 -0.816,-4.738 -1.273,-7.112 -1.745,1.275 -3.415,2.678 -5.265,3.78 -1.095,0.653 -2.475,0.831 -3.727,1.223 -14.394,12.08 -37.847,7.412 -44.402,-9.295 -2.554,-6.512 -3.465,-13.702 -4.699,-20.658 -0.15,-0.85 2.196,-2.565 3.674,-3.135 1.017,-0.393 2.521,0.536 3.822,0.813 9.661,2.055 9.617,2.029 5.523,10.865 -0.442,0.953 -0.09,2.355 0.177,3.48 0.046,0.194 1.601,0.264 2.333,0.017 2.933,-0.988 5.736,-2.548 8.735,-3.111 5.596,-1.052 11.007,0.198 13.904,5.354 1.208,2.151 0.942,6.401 -0.479,8.391 -1.341,1.877 -5.253,3.105 -7.728,2.709 -3.922,-0.627 -4.812,-3.355 -1.65,-6.665 0.195,-0.204 -1.932,-3.864 -3.26,-4.066 -5.301,-0.806 -9.129,4.077 -7.681,9.444 1.452,5.383 5.437,8.49 10.703,8.3 6.99,-0.252 13.936,-1.67 20.901,-2.587 12.774,-18.43 2.288,-34.65 -16.634,-39.275 -10.753,-2.629 -21.762,-4.204 -32.537,-6.753 -5.299,-1.254 -5.033,0.452 -3.737,4.45 1.522,4.699 -1.845,8.211 -5.04,5.047 C 4.845,48.404 -0.078,40.433 -5.038,32.75 c -1.211,-1.877 -0.923,-5.513 0,-7.806 1.721,-4.271 4.415,-8.149 6.704,-12.191 1.939,4.044 5.529,8.131 5.423,12.119 -0.152,5.652 2.247,8.402 6.437,10.311 6.041,2.75 12.184,5.407 18.511,7.368 10.582,3.278 21.339,5.997 32.041,8.882 1.159,0.312 2.443,0.165 3.667,0.232 -0.628,-1.459 -0.925,-3.88 -1.936,-4.228 -9.54,-3.286 -19.157,-6.384 -28.86,-9.154 -2.914,-0.832 -6.375,0.129 -9.202,-0.846 -2.053,-0.708 -3.473,-3.249 -5.175,-4.973 2.31,-1.578 4.457,-3.579 6.998,-4.554 1.252,-0.481 3.798,0.436 4.79,1.569 6.971,7.95 16.809,6.746 25.736,8.482 6.501,1.264 13.313,1.826 19.34,4.285 3.514,1.435 6.276,5.696 8.3,9.292 0.743,1.319 -1.617,4.383 -2.561,6.651 -1.721,-0.92 -3.463,-1.803 -5.155,-2.773 -1.3,-0.746 -2.538,-1.602 -3.802,-2.409 -0.88,1.47 -2.358,2.872 -2.533,4.422 -0.641,5.636 3.784,10.744 10.066,12.14 11.936,2.653 23,-7.361 20.017,-19.181 C 102.481,45.29 98.766,39.038 94.387,36.857 85.37,32.369 78.848,25.907 72.075,18.822 63.021,9.349 50.208,7.754 37.712,6.684 36.525,6.582 35.185,8.275 33.915,9.135 c 1,0.721 1.926,1.587 3.011,2.141 6.644,3.392 13.398,6.581 19.928,10.178 1.226,0.675 1.605,2.886 2.375,4.389 -1.553,0.521 -3.08,1.375 -4.664,1.502 -4.863,0.386 -8.234,-1.116 -10.181,-6.358 -1.249,-3.361 -3.97,-10.394 -8.182,-1.238 -0.351,0.763 -3.179,1.272 -3.228,1.163 -4.506,-9.97 -8.365,-2.536 -12.935,-0.012 -1.667,0.92 -4.965,-0.752 -7.352,-1.671 -1.001,-0.385 -1.574,-1.885 -2.341,-2.879 0.947,-0.67 1.878,-1.893 2.844,-1.922 6.94,-0.207 10.946,-3.378 10.915,-10.554 -0.023,-5.545 4.06,-6.274 7.961,-7.133 7.629,-1.68 12.731,-6.089 14.961,-13.579 1.862,-6.249 -1.05,-10.242 -6.552,-12.788 -6.703,-3.103 -15.868,-1.93 -18.162,2.691 -0.855,1.724 -0.224,4.185 -0.272,6.31 1.77,-0.259 3.531,-0.648 5.309,-0.741 1.921,-0.101 3.855,0.074 5.784,0.129 -0.625,2.296 -0.529,5.396 -2.016,6.729 -3.809,3.416 -10.827,2.448 -14.565,-1.321 -4.42,-4.458 -3.662,-9.206 0.65,-12.713 4.822,-3.922 7.141,-7.32 4.51,-13.946 -1.714,-4.315 0.833,-8.927 6.265,-9.924 7.598,-1.395 6.384,-5.748 4.125,-10.787 -2.959,-6.6 -8.298,-9.15 -15.1,-8.423 -7.099,0.758 -12.248,-1.185 -17.673,-6.447 -11.964,-11.605 -25.639,-11.105 -37.712,0.729 -4.554,4.463 -8.953,6.651 -15.243,5.798 -3.013,-0.408 -6.283,-0.165 -9.245,0.563 -5.167,1.27 -8.456,4.666 -9.059,10.207 -0.529,4.859 1.948,7.119 6.437,8.488 4.971,1.516 7.865,6.549 5.739,10.4 -3.638,6.591 -0.56,9.162 3.754,13.026 4.034,3.612 4.347,8.975 0.693,13.221 -3.663,4.257 -8.878,4.213 -13.349,1.48 -1.635,-0.999 -1.818,-4.37 -2.663,-6.659 1.803,0.184 3.608,0.524 5.409,0.511 1.865,-0.014 3.726,-0.372 5.588,-0.579 -0.315,-2.39 0.231,-5.564 -1.102,-7.03 -4.755,-5.229 -17.38,-4.164 -21.686,1.351 -4.527,5.796 -2.605,15.393 4.391,19.691 2.947,1.81 6.549,2.598 9.905,3.691 2.983,0.972 5.942,1.443 5.602,5.911 -0.533,6.991 3.4,10.337 10.023,11.797 2.021,0.446 3.527,3.232 5.269,4.947 l -0.175,-0.128 c 0.578,-0.652 1.194,-1.274 1.728,-1.96 5.176,-6.645 7.522,-6.782 10.466,-0.003 3.359,7.734 6.36,15.587 -1.736,22.779 -2.539,2.255 -3.98,5.721 -6.05,8.539 -2.456,3.342 -4.575,9.772 -9.446,6.647 -6.354,-4.077 1.269,-7.952 2.353,-12.024 l 0.138,0.14 c -10.801,2.265 -21.541,4.898 -32.419,6.695 -11.323,1.871 -20.973,6.536 -29.008,14.657 z" /></g><g
           transform="translate(169.7715,117.0264)"
           id="g40"><path
             id="path42"
             style="fill:#000000;fill-opacity:1;fill-rule:nonzero;stroke:none"
             d="m 0,0 c -1.515,4.805 -5.812,6.257 -10.26,4.999 -2.766,-0.782 -6.721,-3.939 -6.842,-6.205 -0.302,-5.716 4.58,-6.771 9.352,-6.528 C -3.318,-7.51 -0.096,-5.694 0,0 m 4.167,-24.538 c -0.193,1.017 -0.059,2.148 -0.545,2.578 -3.565,3.158 -6.922,6.899 -11.097,8.821 -1.346,0.619 -4.91,-3.718 -7.54,-5.68 -1.045,-0.779 -2.673,-0.993 -3.384,-1.949 -1.007,-1.356 -2.373,-3.575 -1.891,-4.693 1.367,-3.164 3.596,-5.956 5.485,-8.894 1.217,1.965 2.448,3.921 3.646,5.897 1.035,1.705 2.033,3.433 3.048,5.149 1.041,-1.802 2.232,-3.538 3.082,-5.426 0.848,-1.886 1.354,-3.925 2.01,-5.897 1.606,1.858 3.333,3.627 4.778,5.603 1.025,1.402 1.671,3.083 2.408,4.491 m -57.013,18.413 c 0.193,-0.99 0.385,-1.98 0.577,-2.971 -3.556,-1.733 -6.975,-4.307 -10.713,-4.912 -2.616,-0.424 -5.624,1.987 -8.541,2.849 -1.436,0.425 -4.261,0.629 -4.41,0.209 -0.984,-2.787 -1.803,-5.771 -1.799,-8.689 0.001,-0.927 2.907,-2.882 4.078,-2.61 7.157,1.656 14.518,3.097 21.169,6.055 4.683,2.084 6.948,7.516 4.019,12.337 -1.756,2.888 -5.716,4.844 -9.1,6.094 -1.04,0.385 -3.455,-2.95 -5.24,-4.582 1.864,-0.957 3.672,-2.051 5.609,-2.826 1.36,-0.544 2.895,-0.651 4.351,-0.954 m 24.592,-14.561 c -1.694,2.162 -3.133,5.82 -5.331,6.355 -2.926,0.712 -8.205,0.066 -9.389,-1.876 -4.184,-6.864 -9.496,-9.405 -17.183,-8.064 -0.839,0.147 -1.894,-0.946 -2.849,-1.463 0.537,-0.662 0.996,-1.41 1.623,-1.971 7.901,-7.084 24.246,-6.367 30.525,1.429 1.044,1.296 1.468,3.089 2.604,5.59 m -38.901,42.21 c -0.439,0.068 -0.933,0.298 -1.309,0.174 -1.808,-0.599 -4.999,-1.112 -5.113,-1.991 -0.376,-2.903 0.364,-5.95 0.675,-8.942 1.89,0.867 3.833,1.635 5.662,2.618 14.411,7.737 27.544,2.444 32.553,-13.208 0.538,-1.679 0.154,-3.977 1.173,-5.109 1.877,-2.082 4.316,-3.882 6.87,-5.004 0.873,-0.383 4.087,1.758 4.008,2.512 -0.287,2.728 -0.798,6.019 -2.526,7.902 -5.997,6.536 -12.55,12.558 -18.866,18.803 -1.217,1.202 -2.315,2.524 -3.467,3.79 2.095,0.125 4.338,0.783 6.252,0.252 2.96,-0.819 5.764,-2.318 8.514,-3.759 15.666,-8.216 31.349,-8.613 47.263,-0.614 3.942,1.981 8.216,3.347 12.429,4.71 1.045,0.339 2.45,-0.434 3.69,-0.696 C 29.955,21.925 29.394,20.75 28.521,19.89 27.588,18.969 26.216,18.491 25.287,17.567 19.335,11.643 13.276,5.81 7.623,-0.392 4.938,-3.335 4.557,-7.504 8.652,-9.254 c 1.766,-0.754 5.869,1.231 7.333,3.164 2.045,2.699 2.577,6.531 3.822,9.854 2.732,7.298 7.79,12.117 15.713,12.366 4.727,0.149 9.494,-1.355 14.263,-1.947 2.275,-0.283 4.718,-0.602 6.832,-0.007 0.724,0.204 1.501,3.834 0.795,4.678 -1.165,1.394 -3.447,2.091 -5.385,2.545 -2.817,0.661 -5.746,0.845 -8.627,1.232 2.376,1.839 4.849,3.567 7.096,5.553 1.637,1.445 3.076,3.153 4.389,4.906 0.407,0.545 0.427,1.839 0.045,2.385 -0.377,0.541 -1.584,0.932 -2.255,0.752 -1.696,-0.457 -3.319,-1.223 -4.932,-1.954 -36.444,-16.528 -73.053,-16 -109.855,-1.199 -3.063,1.233 -6.392,1.805 -9.598,2.684 1.996,-2.734 3.906,-5.536 6.03,-8.167 0.809,-1.002 2.239,-1.483 3.144,-2.432 0.776,-0.812 1.207,-1.953 1.791,-2.949 -1.251,-0.298 -2.488,-0.694 -3.756,-0.859 -0.863,-0.112 -1.767,0.102 -2.652,0.173 m 89.201,-53.439 c -9.912,0.703 -14.533,-6.144 -17.499,-13.654 -3.893,-9.858 -6.393,-20.258 -9.718,-30.351 -0.776,-2.353 -2.463,-4.407 -3.73,-6.599 -0.714,2.053 -1.509,4.082 -2.127,6.165 -2.398,8.075 -4.498,16.249 -7.194,24.221 -1.551,4.586 -3.4,9.343 -6.3,13.111 -2.227,2.892 -6.101,5.195 -9.657,6.07 -1.552,0.382 -4.144,-3.462 -6.263,-5.387 1.959,-1.047 4.224,-3.31 5.819,-2.909 4.542,1.144 7.197,-1.356 4.943,-4.271 -5.114,-6.613 -2.323,-12.39 -0.507,-18.672 0.445,-1.541 -0.021,-3.345 -0.067,-5.028 -1.298,0.799 -3.16,1.281 -3.809,2.443 -11.347,20.293 -30.723,28.527 -51.564,34.595 -2.549,0.743 -5.334,0.934 -7.641,2.107 -0.871,0.442 -1.503,3.78 -0.878,4.384 12.234,11.809 13.809,25.711 10.194,41.679 -1.824,8.054 -1.192,16.837 -0.561,25.206 0.349,4.635 2.339,9.493 4.797,13.512 1.967,3.218 5.389,6.071 8.819,7.748 5.507,2.693 6.147,-3.624 8.54,-6.115 4.813,-5.01 10.62,-5.963 17.003,-5.999 1.2,-0.007 2.396,-0.764 3.594,-1.175 -1.16,-1.154 -2.414,-3.384 -3.465,-3.291 -7.357,0.648 -14.663,1.861 -22.008,2.688 -1.844,0.208 -3.772,-0.329 -5.662,-0.524 1.155,-1.662 2.068,-4.504 3.505,-4.8 10.79,-2.222 21.656,-4.125 32.553,-5.758 7.381,-1.106 14.852,-1.61 22.281,-2.394 1.762,-0.186 3.556,-0.752 5.274,-0.569 17.98,1.909 35.949,3.922 53.916,5.953 1.308,0.148 2.794,0.336 3.822,1.047 2.62,1.811 7.445,5.112 7.139,5.74 -2.452,5.017 -5.619,0.229 -8.608,-0.083 -5.669,-0.593 -11.326,-1.498 -17.006,-1.659 -1.792,-0.051 -3.638,1.856 -5.46,2.868 1.683,0.778 3.387,2.265 5.046,2.216 8.192,-0.246 14.851,1.921 18.804,9.785 2.207,4.391 5.527,3.844 8.749,1.206 7.583,-6.209 12.478,-14.168 12.266,-24.054 -0.19,-8.808 -1.604,-17.609 -2.779,-26.373 -1.848,-13.797 -0.57,-26.648 11.157,-36.042 4.126,-3.306 2.811,-4.628 -1.069,-5.82 -2.106,-0.647 -4.351,-0.824 -6.498,-1.362 -21.259,-5.326 -40.051,-14.414 -52.038,-33.989 -0.726,-1.186 -2.353,-1.821 -3.56,-2.713 -0.247,1.274 -0.923,2.641 -0.67,3.807 1.494,6.877 3.634,13.676 -0.92,20.383 -0.289,0.426 2.404,4.172 3.662,4.145 7.979,-0.172 7.975,-0.378 5.141,8.683 5.682,0.217 11.584,-0.439 16.979,0.922 4.409,1.112 8.213,4.628 12.286,7.078 1.81,0.881 3.619,1.763 5.43,2.643 6.524,0.448 5.387,4.311 3.75,8.405 -1.897,4.743 -4.315,1.952 -7.269,1.009 -3.887,-1.239 -8.282,-1.759 -12.305,-1.287 -1.654,0.195 -2.909,3.783 -4.345,5.827 2.094,0.713 4.288,1.225 6.25,2.203 1.65,0.823 3.029,2.188 4.528,3.314 -1.114,1.258 -2.285,3.621 -3.334,3.568 -3.269,-0.165 -7.758,-0.206 -9.417,-2.229 -2.133,-2.6 -3.637,-7.837 -2.39,-10.548 1.545,-3.361 5.842,-6.195 9.576,-7.624 4.702,-1.799 10.036,-1.946 15.098,-2.806 -1.811,-0.878 -3.623,-1.758 -5.433,-2.637 -9.407,-0.596 -18.771,-1.146 -25.279,7.805 -0.723,0.993 -2.284,2.158 -3.287,2.019 -3.256,-0.448 -8.323,-0.586 -9.201,-2.471 -1.322,-2.837 -0.584,-7.506 0.969,-10.528 1.186,-2.309 4.989,-3.273 7.628,-4.834" /></g><g
           transform="translate(34.3955,231.7905)"
           id="g44"><path
             id="path46"
             style="fill:#000000;fill-opacity:1;fill-rule:nonzero;stroke:none"
             d="m 0,0 c -0.643,7.92 4.091,13.108 10.493,15.187 7.396,2.401 7.24,6.266 5.234,11.949 -0.732,2.074 -1.521,4.329 -1.396,6.449 0.141,2.389 1.283,4.718 1.99,7.073 1.494,-1.343 3.236,-2.494 4.441,-4.058 7.805,-10.127 15.403,-20.416 23.339,-30.438 0.942,-1.191 3.523,-1.085 5.345,-1.58 0.14,2.177 1.225,5.038 0.24,6.4 -2.753,3.806 -6.363,6.991 -9.635,10.421 l -0.14,-0.142 c 9.518,-1.791 19.04,-3.562 28.55,-5.397 1.216,-0.235 2.37,-0.796 3.552,-1.206 C 71.024,13.356 70.242,11.799 69.008,10.8 65.249,7.755 60.666,5.482 57.587,1.895 51.36,-5.361 51.923,-11.27 58.745,-17.903 c 3.629,-3.529 9.754,-5.869 4.02,-12.432 -0.611,-0.7 -0.501,-3.103 0.168,-3.682 8.709,-7.525 1.528,-10.573 -3.728,-14.609 -11.895,-9.137 -16.916,-20.906 -14.479,-36.167 1.81,-11.332 3.113,-22.918 2.889,-34.356 -0.248,-12.674 -10.002,-19.33 -21.861,-16.718 -6.414,1.413 -10.728,5.745 -11.208,11.69 -0.388,4.802 1.106,10.558 3.741,14.604 3.468,5.323 12.534,5.436 16.478,0.965 1.525,-1.728 1.584,-4.75 2.312,-7.183 -1.74,0.27 -3.644,1.105 -5.176,0.659 -1.765,-0.515 -3.202,-2.16 -4.781,-3.315 1.954,-1.94 3.761,-5.314 5.89,-5.531 4.934,-0.501 9.451,6.222 8.117,11.448 -1.404,5.501 -4.63,9.746 -10.606,10.661 -3.923,0.601 -7.959,0.461 -11.944,0.654 l 0.11,-0.109 c 3.439,2.467 6.59,6.288 10.382,7.096 6.251,1.331 5.958,4.26 5.422,9.301 -0.73,6.881 -0.018,13.908 -0.112,20.87 -0.016,1.164 -0.983,2.314 -1.51,3.472 -1.182,-0.981 -2.954,-1.73 -3.447,-2.982 -2.714,-6.899 -5.035,-13.953 -7.723,-20.864 -0.354,-0.908 -2.039,-1.298 -3.108,-1.928 -0.141,1.223 -0.322,2.442 -0.419,3.669 -0.792,10.039 -1.672,20.073 -2.189,30.127 -0.05,0.988 2.508,3.214 3.262,2.978 15.167,-4.768 23.984,6.053 33.932,13.767 3.887,3.014 2.102,6.297 -1.188,8.724 -4.108,3.029 -4.983,-0.519 -6.641,-3.212 -8.503,-13.813 -22.749,-17.634 -34.869,-9.527 -10.451,6.992 -13.715,24.081 -6.591,34.508 5.537,8.105 13.956,9.772 21.901,4.335 7.293,-4.99 8.879,-15.23 3.308,-22.132 -0.743,-0.92 -2.151,-1.304 -3.251,-1.936 -0.237,1.171 -0.848,2.412 -0.645,3.5 0.914,4.885 -0.572,8.59 -5.87,7.61 -4.595,-0.85 -6.097,-5.47 -4.385,-9.455 1.444,-3.363 4.158,-7.457 7.225,-8.476 2.939,-0.976 8.111,0.499 10.472,2.786 10.321,9.998 5.558,30.776 -8.096,35.318 C 20.755,7.486 15.893,6.738 11.844,5.681 7.671,4.59 3.89,1.998 -0.062,0.062 -0.062,0.062 0,0 0,0" /></g><g
           transform="translate(250.2246,122.5889)"
           id="g48"><path
             id="path50"
             style="fill:#000000;fill-opacity:1;fill-rule:nonzero;stroke:none"
             d="m 0,0 c 5.592,2.378 10.902,6.419 17.382,1.979 5.842,-4.003 7.677,-9.499 6.754,-16.192 -0.885,-6.415 -4.601,-10.649 -10.783,-12.108 -6.791,-1.602 -13.457,-1.058 -18.204,4.929 -4.625,5.833 -6.393,12.625 -5.165,20.039 1.159,6.994 2.323,13.99 3.714,20.939 3.7,18.485 -1.579,33.293 -17.714,43.656 -4.563,2.931 -8.266,5.463 -2.282,10.862 1.486,1.34 0.786,4.918 1.502,7.347 0.777,2.637 1.448,5.653 3.181,7.602 8.387,9.433 8.456,16.597 -0.561,25.11 -2.559,2.417 -5.675,4.237 -8.459,6.427 -0.629,0.494 -1.477,1.804 -1.304,2.028 0.684,0.886 1.637,1.884 2.663,2.135 8.517,2.084 17.069,4.031 25.625,5.95 0.727,0.163 1.565,-0.168 2.352,-0.27 -0.138,-0.814 0.018,-1.978 -0.464,-2.384 -2.674,-2.254 -5.608,-4.205 -8.242,-6.502 -1.452,-1.267 -3.129,-2.882 -3.463,-4.584 -0.18,-0.92 2.356,-3.42 3.48,-3.31 1.811,0.178 3.919,1.565 5.119,3.067 8.02,10.039 15.788,20.28 23.774,30.346 0.931,1.174 2.698,1.685 4.076,2.503 0.372,-1.256 1.368,-2.729 1.018,-3.734 -4.354,-12.516 -0.49,-21.518 11.221,-27.427 0.7,-0.353 1.259,-1.33 1.524,-2.136 0.79,-2.401 1.401,-4.862 2.08,-7.3 -2.148,1.088 -4.349,2.082 -6.435,3.278 -11.171,6.41 -19.665,5.945 -26.601,-1.522 -6.899,-7.427 -7.558,-19.591 -1.85,-28.476 3.14,-4.887 7.594,-6.105 12.675,-4.872 5.7,1.384 7.662,6.164 7.009,11.294 -0.31,2.428 -2.87,5.847 -5.078,6.477 -4.03,1.149 -4.842,-2.392 -5.008,-5.828 -0.09,-1.857 -0.755,-3.685 -1.16,-5.527 -1.541,1.445 -3.563,2.621 -4.541,4.379 -4.53,8.131 -1.587,17.24 6.642,21.388 8.632,4.352 18.037,0.611 21.76,-8.656 C 41.253,88.428 36.651,74.319 25.644,68.423 13.485,61.91 2.325,65.136 -6.409,77.763 c -1.776,2.568 -1.894,7.685 -7.218,3.738 -3.431,-2.544 -5.236,-4.39 -0.949,-8.048 9.82,-8.379 18.814,-17.988 33.891,-13.724 4.393,1.244 3.444,-2.49 2.886,-5.063 -2.059,-9.502 -5.247,-18.938 -1.324,-28.741 0.264,-0.657 -0.315,-1.652 -0.501,-2.488 -1.107,0.302 -2.874,0.276 -3.217,0.96 -2.34,4.685 -4.615,9.433 -6.421,14.341 -0.889,2.421 -0.501,5.288 -1.179,7.823 C 9.317,47.457 7.584,48.539 6.604,48.472 5.779,48.415 4.427,46.841 4.392,45.898 4.064,37.109 3.849,28.311 3.955,19.519 3.97,18.293 5.683,16.637 7.006,15.976 9.363,14.799 12.231,14.597 14.503,13.31 17.082,11.85 19.24,9.646 21.582,7.766 18.921,7.708 16.259,7.678 13.598,7.589 7.764,7.393 1.687,7.589 0.146,-0.114 c -5.028,-5.198 -2.765,-9.769 1.837,-13.293 1.549,-1.186 4.866,-0.75 7.086,-0.09 1.159,0.344 2.635,3.86 2.356,4.105 C 9.713,-7.89 7.18,-5.572 5.581,-6 -0.797,-7.705 0.613,-3.095 0,0" /></g><g
           transform="translate(101.1201,258.5806)"
           id="g52"><path
             id="path54"
             style="fill:#000000;fill-opacity:1;fill-rule:nonzero;stroke:none"
             d="M 0,0 C 2.647,-1.782 5.295,-3.563 7.943,-5.345 4.255,-5.782 0.521,-6.826 -3.112,-6.548 c -13.438,1.027 -24.508,6.7 -33.422,17.082 -3.343,3.894 -8.2,6.502 -12.425,9.616 -1.06,0.781 -2.395,1.175 -3.516,1.886 -10.518,6.678 -14.235,17.408 -9.024,25.954 4.921,8.069 14.587,9.641 25.916,4.211 1.194,-0.573 2.377,-1.166 3.565,-1.75 l -0.151,0.21 c -0.04,-1.758 0.091,-3.539 -0.151,-5.268 -0.795,-5.679 -2.345,-8.916 -7.629,-2.661 -0.844,1 -4.915,1.017 -5.462,0.172 -1.224,-1.89 -2.385,-5.642 -1.404,-6.799 2.994,-3.53 6.604,-7.12 10.742,-8.946 4.687,-2.07 10.223,-2.18 15.36,-3.278 9.993,-2.136 20.755,-0.571 29.407,-8.799 4.655,-4.426 9.487,0.074 9.977,8.914 l -0.126,-0.16 C 33.01,20.466 33.694,19.504 31.805,5.19 l 0.174,0.128 C 26.191,6.695 20.129,9.94 15.815,2.384 15.431,1.71 11.883,1.713 11.624,2.261 5.964,14.243 5.03,3.214 2.329,0.493 1.803,-0.036 0.685,0.023 -0.16,-0.189 c -1.566,3.097 -3.127,6.197 -4.699,9.292 -2.518,4.954 -7.143,4.163 -11.413,3.987 -0.943,-0.039 -1.838,-1.252 -2.755,-1.924 2.27,-2.485 4.122,-5.73 6.915,-7.267 C -8.464,1.892 -4.072,1.237 0,0" /></g><g
           transform="translate(169.7661,359.2451)"
           id="g56"><path
             id="path58"
             style="fill:#000000;fill-opacity:1;fill-rule:nonzero;stroke:none"
             d="m 0,0 c -3.199,-2.762 -5.557,-6.382 -7.857,-6.346 -2.395,0.037 -5.923,3.185 -6.822,5.727 -1.386,3.921 4.806,12.09 6.938,10.52 C -4.914,7.819 -3.185,4.245 0,0" /></g><g
           transform="translate(74.4463,253.1934)"
           id="g60"><path
             id="path62"
             style="fill:#000000;fill-opacity:1;fill-rule:nonzero;stroke:none"
             d="M 0,0 -0.705,0.547 -0.14,-0.142 Z" /></g><g
           transform="translate(52.9727,130.5752)"
           id="g64"><path
             id="path66"
             style="fill:#000000;fill-opacity:1;fill-rule:nonzero;stroke:none"
             d="m 0,0 c -0.131,-0.306 -0.261,-0.61 -0.392,-0.915 0.167,0.269 0.334,0.537 0.502,0.807 z" /></g><g
           transform="translate(34.3335,231.8525)"
           id="g68"><path
             id="path70"
             style="fill:#000000;fill-opacity:1;fill-rule:nonzero;stroke:none"
             d="m 0,0 c -0.135,-0.28 -0.269,-0.561 -0.403,-0.84 0.154,0.259 0.31,0.519 0.465,0.778 C 0.062,-0.062 0,0 0,0" /></g><g
           transform="translate(269.0156,370.3516)"
           id="g72"><path
             id="path74"
             style="fill:#000000;fill-opacity:1;fill-rule:nonzero;stroke:none"
             d="M 0,0 0.564,0.688 -0.141,0.141 Z" /></g><g
           transform="translate(141.7427,244.8164)"
           id="g76"><path
             id="path78"
             style="fill:#ffffff;fill-opacity:1;fill-rule:nonzero;stroke:none"
             d="m 0,0 c -0.941,-3.93 -1.069,-5.778 -1.828,-7.315 -1.071,-2.174 -2.583,-4.137 -4.034,-6.097 -0.062,-0.083 -1.538,0.644 -2.123,1.226 -2.923,2.91 -0.27,4.321 1.531,6.276 3.023,3.282 3.241,6.025 -2.072,7.289 -1.619,0.385 -3.003,1.755 -4.495,2.674 2.059,1.306 5.336,4.154 5.968,3.655 C -4.043,5.33 -1.753,2.042 0,0" /></g><g
           transform="translate(181.0186,244.4248)"
           id="g80"><path
             id="path82"
             style="fill:#ffffff;fill-opacity:1;fill-rule:nonzero;stroke:none"
             d="M 0,0 C 1.232,2.043 2.468,5.443 4.865,7.47 5.979,8.413 10.354,7.482 11.501,6.024 14.552,2.146 10.824,2.839 8.407,2.07 3.774,0.598 5.631,-2.702 7.436,-5.177 c 2.152,-2.95 2.78,-5.606 -0.725,-7.471 -0.458,-0.244 -3.19,3.026 -4.301,4.99 C 1.363,-5.81 1.064,-3.538 0,0" /></g><g
           transform="translate(173.939,92.4883)"
           id="g84"><path
             id="path86"
             style="fill:#ffffff;fill-opacity:1;fill-rule:nonzero;stroke:none"
             d="m 0,0 c -0.738,-1.408 -1.383,-3.089 -2.409,-4.491 -1.445,-1.976 -3.171,-3.745 -4.777,-5.603 -0.656,1.972 -1.162,4.011 -2.01,5.897 -0.85,1.888 -2.041,3.624 -3.083,5.426 -1.014,-1.716 -2.013,-3.444 -3.047,-5.149 -1.199,-1.976 -2.43,-3.932 -3.647,-5.897 -1.889,2.938 -4.118,5.73 -5.484,8.894 -0.483,1.118 0.883,3.337 1.891,4.694 0.71,0.956 2.339,1.169 3.383,1.948 2.63,1.962 6.194,6.3 7.54,5.68 C -7.467,9.478 -4.111,5.736 -0.545,2.578 -0.059,2.148 -0.193,1.018 0,0" /></g><g
           transform="translate(220.9873,93.1201)"
           id="g88"><path
             id="path90"
             style="fill:#ffffff;fill-opacity:1;fill-rule:nonzero;stroke:none"
             d="M 0,0 C 1.811,0.879 3.622,1.759 5.434,2.638 L 5.291,2.806 C 3.48,1.925 1.671,1.043 -0.139,0.162 Z" /></g><g
           transform="translate(250.2246,122.5889)"
           id="g92"><path
             id="path94"
             style="fill:#ffffff;fill-opacity:1;fill-rule:nonzero;stroke:none"
             d="m 0,0 c 0.613,-3.095 -0.797,-7.705 5.581,-6 1.599,0.428 4.132,-1.89 5.844,-3.392 0.279,-0.245 -1.197,-3.761 -2.356,-4.105 -2.22,-0.66 -5.537,-1.096 -7.086,0.09 -4.602,3.524 -6.865,8.095 -1.837,13.293 z" /></g><g
           transform="translate(101.1201,258.5806)"
           id="g96"><path
             id="path98"
             style="fill:#ffffff;fill-opacity:1;fill-rule:nonzero;stroke:none"
             d="m 0,0 c -4.072,1.237 -8.464,1.892 -12.112,3.899 -2.793,1.537 -4.645,4.782 -6.915,7.267 0.917,0.672 1.812,1.885 2.755,1.924 4.27,0.176 8.895,0.967 11.413,-3.987 1.572,-3.095 3.133,-6.195 4.699,-9.292 z" /></g><g
           transform="translate(162.4126,184.3691)"
           id="g100"><path
             id="path102"
             style="fill:#000000;fill-opacity:1;fill-rule:nonzero;stroke:none"
             d="m 0,0 c -3.914,5.035 -8.199,8.162 -7.828,10.572 0.751,4.867 4.03,9.346 6.266,13.985 C 1.391,20.521 5.648,16.822 6.806,12.325 7.499,9.635 3.338,5.696 0,0" /></g><g
           transform="translate(166.2178,220.2319)"
           id="g104"><path
             id="path106"
             style="fill:#000000;fill-opacity:1;fill-rule:nonzero;stroke:none"
             d="m 0,0 c -2.2,-1.717 -3.695,-2.883 -5.189,-4.049 -1.13,1.566 -3.289,3.253 -3.122,4.664 0.194,1.637 2.43,3.032 3.78,4.533 C -3.229,3.669 -1.928,2.19 0,0" /></g><g
           transform="translate(165.4263,236.6685)"
           id="g108"><path
             id="path110"
             style="fill:#000000;fill-opacity:1;fill-rule:nonzero;stroke:none"
             d="m 0,0 c -1.776,-1.314 -2.855,-2.543 -4.168,-2.892 -0.6,-0.159 -1.661,1.418 -2.512,2.207 1.023,1.075 1.902,2.415 3.144,3.08 C -3.09,2.634 -1.772,1.245 0,0" /></g><g
           transform="translate(161.2114,247.1675)"
           id="g112"><path
             id="path114"
             style="fill:#000000;fill-opacity:1;fill-rule:nonzero;stroke:none"
             d="M 0,0 C 0.709,-0.278 1.416,-0.556 2.122,-0.834 1.767,-1.516 1.565,-2.471 1.004,-2.785 0.62,-3 -0.264,-2.324 -0.924,-2.047 -0.617,-1.365 -0.31,-0.683 0,0" /></g><g
           transform="translate(119.7915,282.5762)"
           id="g116"><path
             id="path118"
             style="fill:#000000;fill-opacity:1;fill-rule:nonzero;stroke:none"
             d="m 0,0 c -10.835,1.301 -21.771,2.081 -32.456,4.155 -4.412,0.856 -8.35,4.389 -12.345,6.951 -0.725,0.465 -0.681,2.128 -0.992,3.237 0.81,0.059 1.687,0.352 2.419,0.142 12.621,-3.631 25.249,-7.241 37.805,-11.087 1.99,-0.61 3.637,-2.344 5.443,-3.558 z" /></g><g
           transform="translate(162.2954,303.2529)"
           id="g120"><path
             id="path122"
             style="fill:#000000;fill-opacity:1;fill-rule:nonzero;stroke:none"
             d="M 0,0 C 2.887,3.59 5.484,6.819 8.192,10.187 5.288,13.895 2.51,17.442 -0.397,21.155 -3.543,17.283 -6.398,13.77 -9.348,10.139 -6.232,6.759 -3.35,3.633 0,0 m 18.377,12.354 v -4.2 C 17.127,5.817 16.18,3.241 14.564,1.192 11.177,-3.102 7.497,-7.171 3.824,-11.23 1.245,-14.081 -1.075,-14.309 -3.835,-11.395 -9.462,-5.454 -16.14,-0.331 -19.418,7.554 v 5.4 c 2.557,4.336 4.9,8.816 7.724,12.97 3.412,5.02 7.231,9.763 10.874,14.626 h 0.6 C 0.49,39.488 1.168,38.403 1.915,37.367 7.754,29.26 15,22.081 18.377,12.354" /></g><g
           transform="translate(130.2393,287.7485)"
           id="g124"><path
             id="path126"
             style="fill:#000000;fill-opacity:1;fill-rule:nonzero;stroke:none"
             d="M 0,0 0.777,-0.588 0.138,0.141 Z" /></g></g></g></g></svg>